…
 2 patient_id         0         0          100  
 3 tumoursize         0         0          100  
 4 t_stage            0         0          100  
 5 n_stage            0         0          100  
 6 diabetes           0         0          100  
 7 hypertension       0         0          100  
 8 rural_urban        0         0          100  
 9 marital_status     0         0          100  
10 SNP_a              0         0          100  
11 SNP_b              0         0          100  
12 free_text          0         0          100  
> 
> # row completeness table
> res$row_completeness
# A tibble: 1,000 × 4
   patient_id   NAs NAs_percent Completeness
   <chr>      <int>       <dbl>        <dbl>
 1 4              1        8.33         91.7
 2 6              1        8.33         91.7
 3 7              1        8.33         91.7
 4 8              1        8.33         91.7
 5 9              1        8.33         91.7
 6 10             1        8.33         91.7
 7 12             1        8.33         91.7
 8 15             1        8.33         91.7
 9 17             1        8.33         91.7
10 18             1        8.33         91.7
# ℹ 990 more rows
…
> ### * encode_binary_cats
> 
> flush(stderr()); flush(stdout())
> 
> ### Name: encode_binary_cats
> ### Title: Encode categorical variables as binary factors
> ### Aliases: encode_binary_cats
> 
> ### ** Examples
> 
> # use built-in values. Note: rural_urban is not modified
> # Note: diabetes is not modified because "missing" is interpreted as a third category.
> # strings_to_NA() should be applied first
> encode_binary_cats(example_data, hypertension, rural_urban)
# A tibble: 1,000 × 12
   patient_id tumoursize t_stage n_stage diabetes diabetes_type hypertension
        <int>      <dbl> <chr>   <chr>   <chr>    <chr>         <fct>       
 1          1       61.7 T3a     N2      Yes      Type I        Yes         
 2          2       64.2 T3b     N1      Yes      Type II       Yes         
 3          3       47.8 T1      N2      No       Type I        Yes         
 4          4       40.9 T3a     N0      No       <NA>          Yes         
 5          5       62.1 T4      N1      Yes      Type I        No          
 6          6       13.6 T1      N2      No       <NA>          Yes         
 7          7       62.6 T1      N2      No       <NA>          No          
 8          8       44.5 T3b     N1      No       <NA>          No          
 9          9       44.3 T2      N1      No       <NA>          Yes         
10         10       31.6 T1      N0      No       <NA>          No          
# ℹ 990 more rows
# ℹ 5 more variables: rural_urban <chr>, marital_status <chr>, SNP_a <chr>,
#   SNP_b <chr>, free_text <chr>
> 
> # use custom values. Note: rural_urban is now modified as well.
> encoded_data <- encode_binary_cats(example_data, hypertension, rural_urban,
+                    values = c("No"= "Yes", "rural" = "urban"))
> 
> # to demonstrate the new numeric encoding:
> dplyr::mutate(encoded_data, hypertension_num = as.numeric(hypertension), .keep = "used") 
# A tibble: 1,000 × 2
   hypertension hypertension_num
   <fct>                   <dbl>
 1 Yes                         2
 2 Yes                         2
 3 Yes                         2
 4 Yes                         2
 5 No                          1
 6 Yes                         2
 7 No                          1
 8 No                          1
 9 Yes                         2
10 No                          1
# ℹ 990 more rows
…
The following objects are masked from ‘package:stats’:

    filter, lag

The following objects are masked from ‘package:base’:

    intersect, setdiff, setequal, union

> 
> data(example_data)
> 
> # encode one variable
> encode_cats(example_data, marital_status) %>%
+ select(starts_with("marital_status"))
# A tibble: 1,000 × 4
   marital_status_divorced marital_status_married marital_status_single
                     <dbl>                  <dbl>                 <dbl>
 1                       0                      1                     0
 2                       1                      0                     0
 3                       1                      0                     0
 4                       0                      0                     1
 5                       0                      0                     1
 6                       0                      0                     1
 7                       0                      1                     0
 8                       0                      0                     1
 9                       0                      0                     1
10                       0                      1                     0
# ℹ 990 more rows
# ℹ 1 more variable: marital_status_unknown <dbl>
> 
> # encode multiple variables
> encoded <- encode_cats(example_data, diabetes, marital_status)
> 
> select(encoded, starts_with("marital_status"))
# A tibble: 1,000 × 4
   marital_status_divorced marital_status_married marital_status_single
                     <dbl>                  <dbl>                 <dbl>
 1                       0                      1                     0
 2                       1                      0                     0
 3                       1                      0                     0
 4                       0                      0                     1
 5                       0                      0                     1
 6                       0                      0                     1
 7                       0                      1                     0
 8                       0                      0                     1
 9                       0                      0                     1
10                       0                      1                     0
# ℹ 990 more rows
# ℹ 1 more variable: marital_status_unknown <dbl>
> # diabetes_type included below but was not modified:
> select(encoded, starts_with("diabetes")) 
# A tibble: 1,000 × 4
   diabetes_type diabetes_No diabetes_Yes diabetes_missing
   <chr>               <dbl>        <dbl>            <dbl>
 1 Type I                  0            1                0
 2 Type II                 0            1                0
 3 Type I                  1            0                0
 4 <NA>                    1            0                0
 5 Type I                  0            1                0
 6 <NA>                    1            0                0
 7 <NA>                    1            0                0
 8 <NA>                    1            0                0
 9 <NA>                    1            0                0
10 <NA>                    1            0                0
# ℹ 990 more rows
…
The following objects are masked from ‘package:stats’:

    filter, lag

The following objects are masked from ‘package:base’:

    intersect, setdiff, setequal, union

> require(magrittr)
Loading required package: magrittr
> 
> # one variable
> encode_genotypes(example_data, SNP_a) %>%
+ select(SNP_a)
# A tibble: 1,000 × 1
   SNP_a
   <ord>
 1 C/C  
 2 C/C  
 3 C/C  
 4 C/C  
 5 G/G  
 6 G/G  
 7 C/C  
 8 G/G  
 9 G/G  
10 G/G  
# ℹ 990 more rows
> 
> # multiple variables
> encode_genotypes(example_data, SNP_a, SNP_b) %>%
+ select(SNP_a, SNP_b)
# A tibble: 1,000 × 2
   SNP_a SNP_b
   <ord> <ord>
 1 C/C   T/T  
 2 C/C   A/T  
 3 C/C   T/T  
 4 C/C   T/T  
 5 G/G   T/T  
 6 G/G   T/T  
 7 C/C   T/T  
 8 G/G   T/T  
 9 G/G   T/T  
10 G/G   A/A  
# ℹ 990 more rows
> 
> # using tidyselect helpers
> encode_genotypes(example_data, dplyr::starts_with("SNP")) %>%
+ select(starts_with("SNP"))
# A tibble: 1,000 × 2
   SNP_a SNP_b
   <ord> <ord>
 1 C/C   T/T  
 2 C/C   A/T  
 3 C/C   T/T  
 4 C/C   T/T  
 5 G/G   T/T  
 6 G/G   T/T  
 7 C/C   T/T  
 8 G/G   T/T  
 9 G/G   T/T  
10 G/G   A/A  
# ℹ 990 more rows
…
Attaching package: ‘dplyr’

The following objects are masked from ‘package:stats’:

    filter, lag

The following objects are masked from ‘package:base’:

    intersect, setdiff, setequal, union

> require(magrittr)
Loading required package: magrittr
> encode_ordinals(example_data, ord_levels = c("N0","N1","N2"), n_stage)
# A tibble: 1,000 × 12
   patient_id tumoursize t_stage n_stage diabetes diabetes_type hypertension
        <int>      <dbl> <chr>   <ord>   <chr>    <chr>         <chr>       
 1          1       61.7 T3a     N2      Yes      Type I        Yes         
 2          2       64.2 T3b     N1      Yes      Type II       Yes         
 3          3       47.8 T1      N2      No       Type I        Yes         
 4          4       40.9 T3a     N0      No       <NA>          Yes         
 5          5       62.1 T4      N1      Yes      Type I        No          
 6          6       13.6 T1      N2      No       <NA>          Yes         
 7          7       62.6 T1      N2      No       <NA>          No          
 8          8       44.5 T3b     N1      No       <NA>          No          
 9          9       44.3 T2      N1      No       <NA>          Yes         
10         10       31.6 T1      N0      No       <NA>          No          
# ℹ 990 more rows
# ℹ 5 more variables: rural_urban <chr>, marital_status <chr>, SNP_a <chr>,
#   SNP_b <chr>, free_text <chr>
> 
> # Note: "unequivocal" is present in  t_stage but not in `ord_levels`.
> # with `strict_levels` TRUE, t_stage is unmodified and a warning message is given:
> 
> encode_ordinals(example_data,
+    ord_levels = c("T1","T2","T3a", "T3b", "T4"), strict_levels = TRUE, t_stage) %>%
+    select(t_stage)
Warning: When parameter `strict_levels` is TRUE, all levels must be present in `ord_levels` for variables specified with `...`.
The following variables have not been modified:
✖ `t_stage` contains 19 problematic values.

ℹ Ensure missing values (i.e. `NA`) have been included in `ord_levels` if it should be considered.
# A tibble: 1,000 × 1
   t_stage
   <chr>  
 1 T3a    
 2 T3b    
 3 T1     
 4 T3a    
 5 T4     
 6 T1     
 7 T1     
 8 T3b    
 9 T2     
10 T1     
# ℹ 990 more rows
>    
> # with `strict_levels` FALSE, it is replaced with NA:
> 
> encode_ordinals(example_data,
+    ord_levels = c("T1","T2","T3a", "T3b", "T4"), strict_levels = FALSE, t_stage) %>%
+    select(t_stage)
# A tibble: 1,000 × 1
   t_stage
   <ord>  
 1 T3a    
 2 T3b    
 3 T1     
 4 T3a    
 5 T4     
 6 T1     
 7 T1     
 8 T3b    
 9 T2     
10 T1     
# ℹ 990 more rows
…
> ### * extract_freetext
> 
> flush(stderr()); flush(stdout())
> 
> ### Name: extract_freetext
> ### Title: Extract information from free text
> ### Aliases: extract_freetext
> 
> ### ** Examples
> 
> data(example_data)
> extract_freetext(example_data, patient_id, min_freq = 0.6, free_text)
`skipgrams2append` not provided. Searching for skipgrams with a `min_freq` of 0.6%
4 skipgrams have been appended the data.
# A tibble: 1,000 × 15
   patient_id tumoursize t_stage n_stage diabetes diabetes_type hypertension
        <dbl>      <dbl> <chr>   <chr>   <chr>    <chr>         <chr>       
 1          1       61.7 T3a     N2      Yes      Type I        Yes         
 2          2       64.2 T3b     N1      Yes      Type II       Yes         
 3          3       47.8 T1      N2      No       Type I        Yes         
 4          4       40.9 T3a     N0      No       <NA>          Yes         
 5          5       62.1 T4      N1      Yes      Type I        No          
 6          6       13.6 T1      N2      No       <NA>          Yes         
 7          7       62.6 T1      N2      No       <NA>          No          
 8          8       44.5 T3b     N1      No       <NA>          No          
 9          9       44.3 T2      N1      No       <NA>          Yes         
10         10       31.6 T1      N0      No       <NA>          No          
# ℹ 990 more rows
# ℹ 8 more variables: rural_urban <chr>, marital_status <chr>, SNP_a <chr>,
#   SNP_b <chr>, board_will <dbl>, leas_ran <dbl>, sixteen_week <dbl>,
#   white_back <dbl>
…
> 
> flush(stderr()); flush(stdout())
> 
> ### Name: merge_cols
> ### Title: Merge columns in data frame
> ### Aliases: merge_cols
> 
> ### ** Examples
> 
> data(example_data)
> 
> # preserve input variables (default)
> res <- merge_cols(example_data, diabetes_type, diabetes)
> dplyr::select(res, dplyr::starts_with("diabetes"))
# A tibble: 1,000 × 3
   diabetes diabetes_type diabetes_type_diabetes_merged
   <chr>    <chr>         <chr>                        
 1 Yes      Type I        Type I                       
 2 Yes      Type II       Type II                      
 3 No       Type I        Type I                       
 4 No       <NA>          No                           
 5 Yes      Type I        Type I                       
 6 No       <NA>          No                           
 7 No       <NA>          No                           
 8 No       <NA>          No                           
 9 No       <NA>          No                           
10 No       <NA>          No                           
# ℹ 990 more rows
> 
> # remove input variables
> res <- merge_cols(example_data, diabetes_type, diabetes, rm_in_vars = TRUE)
> dplyr::select(res, dplyr::starts_with("diabetes"))
# A tibble: 1,000 × 1
   diabetes_type_diabetes_merged
   <chr>                        
 1 Type I                       
 2 Type II                      
 3 Type I                       
 4 No                           
 5 Type I                       
 6 No                           
 7 No                           
 8 No                           
 9 No                           
10 No                           
# ℹ 990 more rows
…
> data(example_ontology)
> require(magrittr)
Loading required package: magrittr
> example_ontology %>%
+ join_vars_to_ontol(example_mapping_file, root = "root") -> joined_ontol
This graph was created by an old(er) igraph version.
ℹ Call `igraph::upgrade_graph()` on it to use with the current igraph version.
For now we convert it on the fly...
> 
> mv_info <- metavariable_info(joined_ontol)
Identifying semantic commonalities...
Complete. Duration: 0.14 secs.
9 semantic commonalities found (via common ontological ancestors).
> metavariable_variable_descendants(mv_info)
# A tibble: 36 × 3
   metavariable       information_content descendant_variable    
   <chr>                            <dbl> <chr>                  
 1 property_of_tumour               0.723 t_stage                
 2 property_of_tumour               0.723 tumoursize             
 3 TNM                              0.723 n_stage                
 4 TNM                              0.723 t_stage                
 5 diabetes_mellitus                0.723 diabetes_merged_Type.I 
 6 diabetes_mellitus                0.723 diabetes_merged_Type.II
 7 pathway_1                        0.577 SNP_a                  
 8 pathway_1                        0.577 SNP_b                  
 9 marital_status                   0.532 marital_status_divorced
10 marital_status                   0.532 marital_status_married 
# ℹ 26 more rows
…
> ### Title: Data modification tracking
> ### Aliases: mod_track
> 
> ### ** Examples
> 
> # merge data as the example modification
> 
> require(magrittr)
Loading required package: magrittr
> 
>  # example with one modification type (removal)
>  # return table
>   mod_track(example_data, strings_to_NA(example_data), patient_id)
`vars2compare` not supplied. Attempting to compare all variables...
# A tibble: 78 × 6
   patient_id new_var old_var old_value new_value mod_type
   <chr>      <chr>   <chr>   <chr>     <chr>     <chr>   
 1 31         t_stage t_stage equivocal <NA>      Removal 
 2 34         t_stage t_stage equivocal <NA>      Removal 
 3 44         t_stage t_stage equivocal <NA>      Removal 
 4 48         t_stage t_stage equivocal <NA>      Removal 
 5 261        t_stage t_stage equivocal <NA>      Removal 
 6 263        t_stage t_stage equivocal <NA>      Removal 
 7 348        t_stage t_stage equivocal <NA>      Removal 
 8 454        t_stage t_stage equivocal <NA>      Removal 
 9 468        t_stage t_stage equivocal <NA>      Removal 
10 569        t_stage t_stage equivocal <NA>      Removal 
# ℹ 68 more rows
…
>  # return plot
>   mod_track(example_data, strings_to_NA(example_data), patient_id, plot = TRUE)
`vars2compare` not supplied. Attempting to compare all variables...
> 
>  # example with multiple modification types (removal, substitution and addition)
> example_data %>%
+    strings_to_NA() %>%
+    merge_cols(diabetes_type, diabetes) ->
+    modded_data
> 
> # return table
> mod_track(example_data, modded_data, patient_id, vars2compare = c("t_stage",
+ "diabetes_type_diabetes_merged" = "diabetes", "diabetes_type_diabetes_merged"
+ = "diabetes_type"), plot = FALSE)
# A tibble: 1,019 × 6
   patient_id new_var old_var old_value new_value mod_type
   <chr>      <chr>   <chr>   <chr>     <chr>     <chr>   
 1 31         t_stage t_stage equivocal <NA>      Removal 
 2 34         t_stage t_stage equivocal <NA>      Removal 
 3 44         t_stage t_stage equivocal <NA>      Removal 
 4 48         t_stage t_stage equivocal <NA>      Removal 
 5 261        t_stage t_stage equivocal <NA>      Removal 
 6 263        t_stage t_stage equivocal <NA>      Removal 
 7 348        t_stage t_stage equivocal <NA>      Removal 
 8 454        t_stage t_stage equivocal <NA>      Removal 
 9 468        t_stage t_stage equivocal <NA>      Removal 
10 569        t_stage t_stage equivocal <NA>      Removal 
# ℹ 1,009 more rows
…
> ### * nums_to_NA
> 
> flush(stderr()); flush(stdout())
> 
> ### Name: nums_to_NA
> ### Title: Replace numeric values in numeric columns with NA
> ### Aliases: nums_to_NA
> 
> ### ** Examples
> 
> data(example_data)
> 
> # replace all 1,2, and 3 from tumoursize and patient_id with NA.
> nums_to_NA(data = example_data, tumoursize, patient_id, nums_to_replace = c(1,2,3))
# A tibble: 1,000 × 12
   patient_id tumoursize t_stage n_stage diabetes diabetes_type hypertension
        <int>      <dbl> <chr>   <chr>   <chr>    <chr>         <chr>       
 1         NA       61.7 T3a     N2      Yes      Type I        Yes         
 2         NA       64.2 T3b     N1      Yes      Type II       Yes         
 3         NA       47.8 T1      N2      No       Type I        Yes         
 4          4       40.9 T3a     N0      No       <NA>          Yes         
 5          5       62.1 T4      N1      Yes      Type I        No          
 6          6       13.6 T1      N2      No       <NA>          Yes         
 7          7       62.6 T1      N2      No       <NA>          No          
 8          8       44.5 T3b     N1      No       <NA>          No          
 9          9       44.3 T2      N1      No       <NA>          Yes         
10         10       31.6 T1      N0      No       <NA>          No          
# ℹ 990 more rows
# ℹ 5 more variables: rural_urban <chr>, marital_status <chr>, SNP_a <chr>,
#   SNP_b <chr>, free_text <chr>
…
